Target: http://10.10.10.105

[19:04:52] Starting: 
[19:04:54] 403 -  298B  - /.ht_wsr.txt
[19:04:54] 403 -  291B  - /.hta
[19:04:54] 403 -  300B  - /.htaccess-dev
[19:04:54] 403 -  302B  - /.htaccess-local
[19:04:54] 403 -  302B  - /.htaccess-marco
[19:04:54] 403 -  300B  - /.htaccess.BAK
[19:04:54] 403 -  301B  - /.htaccess.bak1
[19:04:54] 403 -  300B  - /.htaccess.old
[19:04:54] 403 -  301B  - /.htaccess.orig
[19:04:54] 403 -  303B  - /.htaccess.sample
[19:04:54] 403 -  301B  - /.htaccess.save
[19:04:54] 403 -  300B  - /.htaccess.txt
[19:04:54] 403 -  302B  - /.htaccess_extra
[19:04:54] 403 -  301B  - /.htaccess_orig
[19:04:54] 403 -  299B  - /.htaccess_sc
[19:04:54] 403 -  299B  - /.htaccessBAK
[19:04:54] 403 -  299B  - /.htaccessOLD
[19:04:54] 403 -  300B  - /.htaccessOLD2
[19:04:54] 403 -  297B  - /.htaccess~
[19:04:54] 403 -  295B  - /.htgroup
[19:04:55] 403 -  300B  - /.htpasswd-old
[19:04:55] 403 -  301B  - /.htpasswd_test
[19:04:55] 403 -  297B  - /.htpasswds
[19:04:55] 403 -  295B  - /.htusers
[19:05:23] 301 -  310B  - /css  ->  http://10.10.10.105/css/
[19:05:23] 302 -    0B  - /dashboard.php  ->  /index.php
[19:05:24] 301 -  312B  - /debug  ->  http://10.10.10.105/debug/
[19:05:25] 200 -   83KB - /debug/
[19:05:25] 301 -  310B  - /doc  ->  http://10.10.10.105/doc/
[19:05:26] 200 -    1KB - /doc/
[19:05:29] 301 -  312B  - /fonts  ->  http://10.10.10.105/fonts/
[19:05:33] 301 -  310B  - /img  ->  http://10.10.10.105/img/
[19:05:33] 200 -    1KB - /index.php
[19:05:34] 200 -    1KB - /index.php/login/
[19:05:35] 301 -  309B  - /js  ->  http://10.10.10.105/js/
[19:05:52] 403 -  300B  - /server-status
[19:05:52] 403 -  301B  - /server-status/
[19:05:59] 301 -  312B  - /tools  ->  http://10.10.10.105/tools/
