[-] Target: http://10.10.10.150 (10.10.10.150)
[M] Website Not in HTTPS: http://10.10.10.150
[I] Server: Apache/2.4.29 (Ubuntu)
[L] X-Frame-Options: Not Enforced
[I] Strict-Transport-Security: Not Enforced
[I] X-Content-Security-Policy: Not Enforced
[I] X-Content-Type-Options: Not Enforced
[L] No Robots.txt Found
[I] CMS Detection: Joomla
[I] Joomla Version: 3.8.8
[I] Joomla Website Template: protostar
[I] Joomla Administrator Template: isis
[I] Autocomplete Off Not Found: http://10.10.10.150/administrator/index.php
[-] Joomla Default Files: 
[-] Joomla is likely to have a large number of default files
[-] Would you like to list them all?
[y/N]: N
[-] Searching Joomla Components ...
[I] Checking for Directory Listing Enabled ...
[L] http://10.10.10.150/administrator/components
[L] http://10.10.10.150/administrator/help
[L] http://10.10.10.150/administrator/includes
[L] http://10.10.10.150/administrator/language
[L] http://10.10.10.150/administrator/manifests
[L] http://10.10.10.150/administrator/modules
[L] http://10.10.10.150/administrator/templates
[L] http://10.10.10.150/components/com_ajax
[L] http://10.10.10.150/components/com_banners
[L] http://10.10.10.150/components/com_config
[L] http://10.10.10.150/components/com_contact
[L] http://10.10.10.150/components/com_content
[L] http://10.10.10.150/components/com_contenthistory
[L] http://10.10.10.150/components/com_fields
[L] http://10.10.10.150/components/com_finder
[L] http://10.10.10.150/components/com_mailto
[L] http://10.10.10.150/components/com_media
[L] http://10.10.10.150/components/com_menus
[L] http://10.10.10.150/components/com_modules
[L] http://10.10.10.150/components/com_newsfeeds
[L] http://10.10.10.150/components/com_search
[L] http://10.10.10.150/components/com_tags
[L] http://10.10.10.150/components/com_users
[L] http://10.10.10.150/components/com_wrapper
[L] http://10.10.10.150/images/banners
[L] http://10.10.10.150/images/headers
[L] http://10.10.10.150/images/sampledata
[L] http://10.10.10.150/language/en-GB
[L] http://10.10.10.150/layouts/joomla
[L] http://10.10.10.150/layouts/libraries
[L] http://10.10.10.150/layouts/plugins
[L] http://10.10.10.150/libraries/cms
[L] http://10.10.10.150/libraries/fof
[L] http://10.10.10.150/libraries/idna_convert
[L] http://10.10.10.150/libraries/joomla
[L] http://10.10.10.150/libraries/legacy
[L] http://10.10.10.150/libraries/php-encryption
[L] http://10.10.10.150/libraries/phpass
[L] http://10.10.10.150/libraries/phputf8
[L] http://10.10.10.150/libraries/src
[L] http://10.10.10.150/libraries/vendor
[L] http://10.10.10.150/media/cms
[L] http://10.10.10.150/media/com_associations
[L] http://10.10.10.150/media/com_contact
[L] http://10.10.10.150/media/com_content
[L] http://10.10.10.150/media/com_contenthistory
[L] http://10.10.10.150/media/com_fields
[L] http://10.10.10.150/media/com_finder
[L] http://10.10.10.150/media/com_joomlaupdate
[L] http://10.10.10.150/media/com_menus
[L] http://10.10.10.150/media/com_modules
[L] http://10.10.10.150/media/com_wrapper
[L] http://10.10.10.150/media/contacts
[L] http://10.10.10.150/media/editors
[L] http://10.10.10.150/media/jui
[L] http://10.10.10.150/media/mailto
[L] http://10.10.10.150/media/media
[L] http://10.10.10.150/media/mod_languages
[L] http://10.10.10.150/media/mod_sampledata
[L] http://10.10.10.150/media/overrider
[L] http://10.10.10.150/media/plg_captcha_recaptcha
[L] http://10.10.10.150/media/plg_quickicon_extensionupdate
[L] http://10.10.10.150/media/plg_quickicon_joomlaupdate
[L] http://10.10.10.150/media/plg_system_highlight
[L] http://10.10.10.150/media/plg_system_stats
[L] http://10.10.10.150/media/system
[L] http://10.10.10.150/modules/mod_articles_archive
[L] http://10.10.10.150/modules/mod_articles_categories
[L] http://10.10.10.150/modules/mod_articles_category
[L] http://10.10.10.150/modules/mod_articles_latest
[L] http://10.10.10.150/modules/mod_articles_news
[L] http://10.10.10.150/modules/mod_articles_popular
[L] http://10.10.10.150/modules/mod_banners
[L] http://10.10.10.150/modules/mod_breadcrumbs
[L] http://10.10.10.150/modules/mod_custom
[L] http://10.10.10.150/modules/mod_feed
[L] http://10.10.10.150/modules/mod_finder
[L] http://10.10.10.150/modules/mod_footer
[L] http://10.10.10.150/modules/mod_languages
[L] http://10.10.10.150/modules/mod_login
[L] http://10.10.10.150/modules/mod_menu
[L] http://10.10.10.150/modules/mod_random_image
[L] http://10.10.10.150/modules/mod_related_items
[L] http://10.10.10.150/modules/mod_search
[L] http://10.10.10.150/modules/mod_stats
[L] http://10.10.10.150/modules/mod_syndicate
[L] http://10.10.10.150/modules/mod_tags_popular
[L] http://10.10.10.150/modules/mod_tags_similar
[L] http://10.10.10.150/modules/mod_users_latest
[L] http://10.10.10.150/modules/mod_whosonline
[L] http://10.10.10.150/modules/mod_wrapper
[L] http://10.10.10.150/plugins/authentication
[L] http://10.10.10.150/plugins/captcha
[L] http://10.10.10.150/plugins/content
[L] http://10.10.10.150/plugins/editors
[L] http://10.10.10.150/plugins/editors-xtd
[L] http://10.10.10.150/plugins/extension
[L] http://10.10.10.150/plugins/fields
[L] http://10.10.10.150/plugins/finder
[L] http://10.10.10.150/plugins/installer
[L] http://10.10.10.150/plugins/quickicon
[L] http://10.10.10.150/plugins/sampledata
[L] http://10.10.10.150/plugins/search
[L] http://10.10.10.150/plugins/system
[L] http://10.10.10.150/plugins/twofactorauth
[L] http://10.10.10.150/plugins/user
[-] Date & Time: 29/01/2019 07:11:07
[-] Completed in: 0:12:43
