root@n00b:/media/sf_VM_SHARED/htb/10.10.10.150# dirsearch -u http://10.10.10.150/ -e php

 _|. _ _  _  _  _ _|_    v0.3.8
(_||| _) (/_(_|| (_| )

Extensions: php | Threads: 10 | Wordlist size: 5971

Error Log: /usr/share/sniper/plugins/dirsearch/logs/errors-19-01-29_05-33-59.log

Target: http://10.10.10.150/

[05:33:59] Starting: 
[05:34:02] 403 -  300B  - /.htaccess-dev
[05:34:02] 403 -  298B  - /.ht_wsr.txt
[05:34:02] 403 -  291B  - /.hta
[05:34:02] 403 -  302B  - /.htaccess-local
[05:34:02] 403 -  302B  - /.htaccess-marco
[05:34:02] 403 -  300B  - /.htaccess.BAK
[05:34:02] 403 -  301B  - /.htaccess.bak1
[05:34:02] 403 -  303B  - /.htaccess.sample
[05:34:02] 403 -  301B  - /.htaccess.save
[05:34:02] 403 -  300B  - /.htaccess.old
[05:34:02] 403 -  301B  - /.htaccess.orig
[05:34:02] 403 -  300B  - /.htaccess.txt
[05:34:02] 403 -  302B  - /.htaccess_extra
[05:34:02] 403 -  301B  - /.htaccess_orig
[05:34:02] 403 -  299B  - /.htaccess_sc
[05:34:02] 403 -  299B  - /.htaccessOLD
[05:34:02] 403 -  297B  - /.htaccess~
[05:34:02] 403 -  295B  - /.htgroup
[05:34:02] 403 -  299B  - /.htaccessBAK
[05:34:02] 403 -  300B  - /.htaccessOLD2
[05:34:02] 403 -  300B  - /.htpasswd-old
[05:34:02] 403 -  295B  - /.htusers
[05:34:02] 403 -  301B  - /.htpasswd_test
[05:34:02] 403 -  297B  - /.htpasswds
[05:34:16] 301 -  320B  - /administrator  ->  http://10.10.10.150/administrator/
[05:34:16] 200 -    5KB - /administrator/
[05:34:16] 403 -  310B  - /administrator/.htaccess
[05:34:16] 200 -    5KB - /administrator/index.php
[05:34:16] 301 -  325B  - /administrator/logs  ->  http://10.10.10.150/administrator/logs/
[05:34:21] 200 -   31B  - /bin/
[05:34:21] 301 -  310B  - /bin  ->  http://10.10.10.150/bin/
[05:34:23] 301 -  312B  - /cache  ->  http://10.10.10.150/cache/
[05:34:23] 200 -   31B  - /cache/
[05:34:25] 301 -  317B  - /components  ->  http://10.10.10.150/components/
[05:34:26] 200 -    0B  - /configuration.php
[05:34:35] 200 -    3KB - /htaccess.txt
[05:34:36] 301 -  313B  - /images  ->  http://10.10.10.150/images/
[05:34:36] 301 -  315B  - /includes  ->  http://10.10.10.150/includes/
[05:34:36] 200 -   31B  - /includes/
[05:34:37] 200 -   17KB - /index.php
[05:34:39] 301 -  315B  - /language  ->  http://10.10.10.150/language/
[05:34:39] 301 -  316B  - /libraries  ->  http://10.10.10.150/libraries/
[05:34:39] 200 -   18KB - /LICENSE.txt
[05:34:42] 301 -  312B  - /media  ->  http://10.10.10.150/media/
[05:34:43] 301 -  314B  - /modules  ->  http://10.10.10.150/modules/
[05:34:49] 301 -  314B  - /plugins  ->  http://10.10.10.150/plugins/
[05:34:51] 200 -    5KB - /README.txt
[05:34:52] 403 -  300B  - /server-status
[05:34:52] 403 -  301B  - /server-status/
[05:34:58] 301 -  316B  - /templates  ->  http://10.10.10.150/templates/
[05:34:58] 200 -   31B  - /templates/
[05:34:59] 301 -  310B  - /tmp  ->  http://10.10.10.150/tmp/
[05:34:59] 200 -   31B  - /tmp/
[05:35:01] 200 -    2KB - /web.config.txt

Task Completed
