dirsearch -u http://10.10.10.138/writeup/ -e php -w /usr/share/wordlists/dirbuster/directory-list-2.3-medium.txt 

 _|. _ _  _  _  _ _|_    v0.3.8
(_||| _) (/_(_|| (_| )

Extensions: php | HTTP method: get | Threads: 10 | Wordlist size: 220521

Error Log: /usr/share/sniper/plugins/dirsearch/logs/errors-19-08-15_09-01-17.log

Target: http://10.10.10.138/writeup/

[09:01:17] Starting: 
[09:01:18] 200 -    2KB - /writeup/
[09:03:20] 301 -  322B  - /writeup/modules  ->  http://10.10.10.138/writeup/modules/
[09:03:20] 301 -  322B  - /writeup/uploads  ->  http://10.10.10.138/writeup/uploads/
[09:05:22] 301 -  318B  - /writeup/doc  ->  http://10.10.10.138/writeup/doc/