root@n00b:/media/sf_VM_SHARED/htb/10.10.10.153# dirsearch -u http://10.10.10.153 -e php 

 _|. _ _  _  _  _ _|_    v0.3.8
(_||| _) (/_(_|| (_| )

Extensions: php | Threads: 10 | Wordlist size: 5971

Error Log: /usr/share/sniper/plugins/dirsearch/logs/errors-19-01-29_07-09-06.log

Target: http://10.10.10.153

[07:09:06] Starting: 
[07:09:08] 403 -  298B  - /.ht_wsr.txt
[07:09:08] 403 -  291B  - /.hta
[07:09:08] 403 -  300B  - /.htaccess-dev
[07:09:08] 403 -  302B  - /.htaccess-local
[07:09:08] 403 -  302B  - /.htaccess-marco
[07:09:08] 403 -  300B  - /.htaccess.BAK
[07:09:08] 403 -  301B  - /.htaccess.bak1
[07:09:08] 403 -  300B  - /.htaccess.old
[07:09:08] 403 -  301B  - /.htaccess.orig
[07:09:09] 403 -  303B  - /.htaccess.sample
[07:09:09] 403 -  301B  - /.htaccess.save
[07:09:09] 403 -  300B  - /.htaccess.txt
[07:09:09] 403 -  302B  - /.htaccess_extra
[07:09:09] 403 -  299B  - /.htaccess_sc
[07:09:09] 403 -  301B  - /.htaccess_orig
[07:09:09] 403 -  299B  - /.htaccessOLD
[07:09:09] 403 -  300B  - /.htaccessOLD2
[07:09:09] 403 -  299B  - /.htaccessBAK
[07:09:09] 403 -  295B  - /.htgroup
[07:09:09] 403 -  297B  - /.htaccess~
[07:09:09] 403 -  300B  - /.htpasswd-old
[07:09:09] 403 -  297B  - /.htpasswds
[07:09:09] 403 -  301B  - /.htpasswd_test
[07:09:09] 403 -  295B  - /.htusers
[07:09:31] 301 -  310B  - /css  ->  http://10.10.10.153/css/
[07:09:36] 301 -  312B  - /fonts  ->  http://10.10.10.153/fonts/
[07:09:38] 301 -  313B  - /images  ->  http://10.10.10.153/images/
[07:09:39] 200 -    8KB - /index.html
[07:09:40] 301 -  317B  - /javascript  ->  http://10.10.10.153/javascript/
[07:09:40] 301 -  309B  - /js  ->  http://10.10.10.153/js/
[07:09:43] 301 -  313B  - /manual  ->  http://10.10.10.153/manual/
[07:09:43] 200 -  626B  - /manual/index.html
[07:09:45] 301 -  313B  - /moodle  ->  http://10.10.10.153/moodle/
[07:09:49] 403 -  297B  - /phpmyadmin
[07:09:50] 403 -  298B  - /phpmyadmin/
[07:09:50] 403 -  315B  - /phpmyadmin/scripts/setup.php
[07:09:53] 403 -  300B  - /server-status
[07:09:53] 403 -  301B  - /server-status/

Task Completed
