***********************************************************************
*            Welcome to the Webmin setup script, version 1.890        *
***********************************************************************
Webmin is a web-based interface that allows Unix-like operating
systems and common Unix services to be easily administered.

Installing Webmin in /usr/share/webmin ...

***********************************************************************
Webmin uses separate directories for configuration files and log files.
Unless you want to run multiple versions of Webmin at the same time
you can just accept the defaults.

Config file directory [/etc/webmin]: Log file directory [/var/webmin]: 
***********************************************************************
Webmin is written entirely in Perl. Please enter the full path to the
Perl 5 interpreter on your system.


Testing Perl ...
Perl seems to be installed ok

***********************************************************************
Operating system name:    Ubuntu Linux
Operating system version: 18.10

***********************************************************************
Webmin uses its own password protected web server to provide access
to the administration programs. The setup script needs to know :
 - What port to run the web server on. There must not be another
   web server already using this port.
 - The login name required to access the web server.
 - The password required to access the web server.
 - If the webserver should use SSL (if your system supports it).
 - Whether to start webmin at boot time.

Web server port (default 10000): Login name (default admin): Login password: ***********************************************************************
Creating web server config files..
..done

Creating access control file..
..done

Creating start and stop scripts..
..done

Copying config files..
..done

Configuring Webmin to start at boot time..
..done

Changing ownership and permissions ..
..done

Running postinstall scripts ..
..done

Enabling background status collection ..
..done

