root@n00b:/media/sf_VM_SHARED/htb/10.10.10.109# dirb http://10.10.10.109/sparklays -w /usr/share/wordlists/dirbuster/directory-list-2.3-medium.txt -X .php

-----------------
DIRB v2.22    
By The Dark Raver
-----------------

START_TIME: Sun Feb 10 02:30:27 2019
URL_BASE: http://10.10.10.109/sparklays/
WORDLIST_FILES: /usr/share/dirb/wordlists/common.txt
OPTION: Not Stopping on warning messages
EXTENSIONS_LIST: (.php) | (.php) [NUM = 1]

-----------------

GENERATED WORDS: 4612                                                          

---- Scanning URL: http://10.10.10.109/sparklays/ ----
+ http://10.10.10.109/sparklays/admin.php (CODE:200|SIZE:615)                             
+ http://10.10.10.109/sparklays/login.php (CODE:200|SIZE:16)                              
                                                                                          
-----------------
END_TIME: Sun Feb 10 02:34:44 2019
DOWNLOADED: 4612 - FOUND: 2

root@n00b:/media/sf_VM_SHARED/htb/10.10.10.109# dirb http://10.10.10.109/sparklays/design -w /usr/share/wordlists/dirbuster/directory-list-2.3-medium.txt -X .html

-----------------
DIRB v2.22    
By The Dark Raver
-----------------

START_TIME: Sun Feb 10 03:00:07 2019
URL_BASE: http://10.10.10.109/sparklays/design/
WORDLIST_FILES: /usr/share/dirb/wordlists/common.txt
OPTION: Not Stopping on warning messages
EXTENSIONS_LIST: (.html) | (.html) [NUM = 1]

-----------------

GENERATED WORDS: 4612                                                          

---- Scanning URL: http://10.10.10.109/sparklays/design/ ----
+ http://10.10.10.109/sparklays/design/design.html (CODE:200|SIZE:72)                     
^C> Testing: http://10.10.10.109/sparklays/design/home.html  

http://10.10.10.109/sparklays/design/changelogo.php
